{
  "b_tot_cnt_cur7dpd_exst_lns": {
    "diapason": [
      {
        "min": null,
        "max": null,
        "result": 45
      },
      {
        "max": 5,
        "result": 45
      },
      {
        "min": 5,
        "result": 0
      }
    ],
    "attribute": {
      "dlflstat": [
        "1",
        "4",
        "5"
      ],
      "min_dldayexp": 7
    }
  }
}