{
  "q_mfo_wk": {
    "diapason": [
      {
        "min": null,
        "max": null,
        "result": 22
      },
      {
        "max": 1,
        "result": 22
      },
      {
        "min": 1,
        "max": 5,
        "result": 11
      },
      {
        "min": 5,
        "result": 0
      }
    ],
    "attribute": {
      "org": [
        "MFO"
      ],
      "reqreason": [
        "2",
        "4",
        "NULL",
        ""
      ],
      "max_redate": 7
    }
  }
}