{
  "score_kyivstar_ks_numbers": {
    "diapason": [
      {
        "min": null,
        "max": null,
        "result": 29
      },
      {
        "max": 0.17,
        "result": 47
      },
      {
        "min": 0.17,
        "max": 0.29,
        "result": 20
      },
      {
        "min": 0.29,
        "result": 0
      }
    ],
    "attribute": {}
  }
}