{
  "definitions": {},
  "$schema": "http://json-schema.org/draft-07/schema#",
  "$id": "http://example.com/root.json",
  "type": "object",
  "title": "The Root Schema",
  "required": [
    "b_tot_max_dpd_tot_lns_100"
  ],
  "properties": {
    "b_tot_max_dpd_tot_lns_100": {
      "$id": "#/properties/b_tot_max_dpd_tot_lns_100",
      "type": "object",
      "title": "The B_tot_max_dpd_tot_lns_100 Schema",
      "required": [
        "diapason",
        "attribute"
      ],
      "properties": {
        "diapason": {
          "$id": "#/properties/b_tot_max_dpd_tot_lns_100/properties/diapason",
          "type": "array",
          "title": "The Diapason Schema",
          "items": {
            "$id": "#/properties/b_tot_max_dpd_tot_lns_100/properties/diapason/items",
            "type": "object",
            "title": "The Items Schema",
            "required": [
              "result"
            ],
            "properties": {
              "min": {
                "$id": "#/properties/b_tot_max_dpd_tot_lns_100/properties/diapason/items/properties/min",
                "type": ["null", "number"],
                "title": "The Min Schema",
                "default": null,
                "examples": [
                  null
                ]
              },
              "max": {
                "$id": "#/properties/b_tot_max_dpd_tot_lns_100/properties/diapason/items/properties/max",
                "type": ["null", "number"],
                "title": "The Max Schema",
                "default": null,
                "examples": [
                  null
                ]
              },
              "result": {
                "$id": "#/properties/b_tot_max_dpd_tot_lns_100/properties/diapason/items/properties/result",
                "type": "number",
                "title": "The Result Schema",
                "default": 0,
                "examples": [
                  39
                ]
              }
            }
          }
        },
        "attribute": {
          "$id": "#/properties/b_tot_max_dpd_tot_lns_100/properties/attribute",
          "type": "object",
          "title": "The Attribute Schema",
          "required": [
            "dlamtexp"
          ],
          "properties": {
            "dlamtexp": {
              "$id": "#/properties/b_tot_max_dpd_tot_lns_100/properties/attribute/properties/dlamtexp",
              "type": "number",
              "title": "The Dlamtexp Schema",
              "default": 0.0,
              "examples": [
                100.1
              ]
            }
          }
        }
      }
    }
  }
}