{
  "definitions": {},
  "$schema": "http://json-schema.org/draft-07/schema#",
  "$id": "http://example.com/root.json",
  "type": "object",
  "title": "The Root Schema",
  "required": [
    "old_bki_apl_email_match_bki_apl_phone_match"
  ],
  "properties": {
    "old_bki_apl_email_match_bki_apl_phone_match": {
      "$id": "#/properties/old_bki_apl_email_match_bki_apl_phone_match",
      "type": "object",
      "title": "The Bki_apl_email_match_bki_apl_phone_match Schema",
      "required": [
        "diapason",
        "attribute"
      ],
      "properties": {
        "diapason": {
          "$id": "#/properties/old_bki_apl_email_match_bki_apl_phone_match/properties/diapason",
          "type": "array",
          "title": "The Diapason Schema",
          "items": {
            "$id": "#/properties/old_bki_apl_email_match_bki_apl_phone_match/properties/diapason/items",
            "type": "object",
            "title": "The Items Schema",
            "required": [
              "result"
            ],
            "properties": {
              "min": {
                "$id": "#/properties/old_bki_apl_email_match_bki_apl_phone_match/properties/diapason/items/properties/min",
                "type": ["null", "number"],
                "title": "The Min Schema",
                "default": null,
                "examples": [
                  null
                ]
              },
              "max": {
                "$id": "#/properties/old_bki_apl_email_match_bki_apl_phone_match/properties/diapason/items/properties/max",
                "type": ["null", "number"],
                "title": "The Max Schema",
                "default": null,
                "examples": [
                  null
                ]
              },
              "result": {
                "$id": "#/properties/old_bki_apl_email_match_bki_apl_phone_match/properties/diapason/items/properties/result",
                "type": "number",
                "title": "The Result Schema",
                "default": 0,
                "examples": [
                  0
                ]
              }
            }
          }
        },
        "attribute": {
          "$id": "#/properties/old_bki_apl_email_match_bki_apl_phone_match/properties/attribute",
          "type": "object",
          "title": "The Attribute Schema",
          "required": [
            "email_c_type",
            "phone_c_type",
            "email",
            "phone"
          ],
          "properties": {
            "email_c_type": {
              "$id": "#/properties/old_bki_apl_email_match_bki_apl_phone_match/properties/attribute/properties/email_c_type",
              "type": "array",
              "title": "The Email_c_type Schema",
              "items": {
                "$id": "#/properties/old_bki_apl_email_match_bki_apl_phone_match/properties/attribute/properties/email_c_type/items",
                "type": "integer",
                "title": "The Items Schema",
                "default": 0,
                "examples": [
                  4
                ]
              }
            },
            "phone_c_type": {
              "$id": "#/properties/old_bki_apl_email_match_bki_apl_phone_match/properties/attribute/properties/phone_c_type",
              "type": "array",
              "title": "The Phone_c_type Schema",
              "items": {
                "$id": "#/properties/old_bki_apl_email_match_bki_apl_phone_match/properties/attribute/properties/phone_c_type/items",
                "type": "integer",
                "title": "The Items Schema",
                "default": 0,
                "examples": [
                  1,
                  2,
                  3
                ]
              }
            },
            "email": {
              "$id": "#/properties/old_bki_apl_email_match_bki_apl_phone_match/properties/attribute/properties/email",
              "type": "string",
              "title": "The Email Schema",
              "default": "",
              "examples": [
                "example@i.ua"
              ],
              "pattern": "^(.*)$"
            },
            "phone": {
              "$id": "#/properties/old_bki_apl_email_match_bki_apl_phone_match/properties/attribute/properties/phone",
              "type": "string",
              "title": "The Phone Schema",
              "default": "",
              "examples": [
                "+35895699565"
              ],
              "pattern": "^(.*)$"
            }
          }
        }
      }
    }
  }
}