{
  "definitions": {},
  "$schema": "http://json-schema.org/draft-07/schema#",
  "$id": "http://example.com/root.json",
  "type": "object",
  "title": "The Root Schema",
  "required": [
    "score_artellence"
  ],
  "properties": {
    "score_artellence": {
      "$id": "#/properties/score_artellence",
      "type": "object",
      "title": "The Score_artellence Schema",
      "required": [
        "diapason",
        "attribute"
      ],
      "properties": {
        "diapason": {
          "$id": "#/properties/score_artellence/properties/diapason",
          "type": "array",
          "title": "The Diapason Schema",
          "items": {
            "$id": "#/properties/score_artellence/properties/diapason/items",
            "type": "object",
            "title": "The Items Schema",
            "required": [
              "result"
            ],
            "properties": {
              "min": {
                "$id": "#/properties/score_artellence/properties/diapason/items/properties/min",
                "type": ["null", "number"],
                "title": "The Min Schema",
                "default": null,
                "examples": [
                  null
                ]
              },
              "max": {
                "$id": "#/properties/score_artellence/properties/diapason/items/properties/max",
                "type": ["null", "number"],
                "title": "The Max Schema",
                "default": null,
                "examples": [
                  null
                ]
              },
              "result": {
                "$id": "#/properties/score_artellence/properties/diapason/items/properties/result",
                "type": "number",
                "title": "The Result Schema",
                "default": 0,
                "examples": [
                  67
                ]
              }
            }
          }
        },
        "attribute": {
          "$id": "#/properties/score_artellence/properties/attribute",
          "type": "object",
          "title": "The Attribute Schema",
          "required": [
            "score_artellence"
          ],
          "properties": {
            "score_artellence": {
              "$id": "#/properties/score_artellence/properties/attribute/properties/score_artellence",
              "type": "string",
              "title": "The Score_artellence Schema",
              "default": "",
              "examples": [
                "123.05"
              ],
              "pattern": "^(.*)$"
            }
          }
        }
      }
    }
  }
}