{
  "app_fb": {
    "diapason": [
      {
        "min": 0,
        "max": 0,
        "result": 0
      },
      {
        "min": 1,
        "max": 1,
        "result": 38
      }
    ],
    "attribute": {}
  }
}