{
  "bki_apl_email_match_or_apl_is_email_confirmed": {
    "diapason": [
      {
        "min": null,
        "max": null,
        "result": 0
      },
      {
        "min": 1,
        "max": 1,
        "result": 140
      },
      {
        "min": 2,
        "result": 0
      }
    ],
    "attribute": {
      "c_type": [
        "4"
      ]
    }
  }
}