{
  "b_tot_max_dpd_tot_lns_100": {
    "diapason": [
      {
        "min": null,
        "max": null,
        "result": 6
      },
      {
        "max": 508,
        "result": 6
      },
      {
        "min": 508,
        "result": 0
      }
    ],
    "attribute": {
      "dlamtexp": 100
    }
  }
}