{
  "score_kyivstar_ks_numbers": {
    "diapason": [
      {
        "min": null,
        "max": null,
        "result": 45
      },
      {
        "min": 0,
        "max": 0.16,
        "result": 47
      },
      {
        "min": 0.16,
        "max": 0.29,
        "result": 32
      },
      {
        "min": 0.29,
        "result": 0
      }
    ],
    "attribute": {}
  }
}