{
  "score_vodafone": {
    "diapason": [
      {
        "min": null,
        "max": null,
        "result": 24
      },
      {
        "min": 0,
        "max": 0.36,
        "result": 33
      },
      {
        "min": 0.36,
        "max": 0.46,
        "result": 25
      },
      {
        "min": 0.46,
        "max": 0.58,
        "result": 21
      },
      {
        "min": 0.58,
        "result": 0
      }
    ],
    "attribute": {}
  }
}